…
``` r
library(pangoling)
library(tidytable) # fast alternative to dplyr
```


Notice the following potential pitfall. This would be a **bad** approach for
making predictions in a masked model:


``` r
masked_tokens_pred_tbl("The apple doesn't fall far from the [MASK]")
#> Processing using masked model 'bert-base-uncased/' ...
#> # A tidytable: 30,522 × 4
#>    masked_sentence                            token     pred mask_n
#>    <chr>                                      <chr>    <dbl>  <int>
#>  1 The apple doesn't fall far from the [MASK] .      -0.0579      1
#>  2 The apple doesn't fall far from the [MASK] ;      -3.21        1
#>  3 The apple doesn't fall far from the [MASK] !      -4.83        1
#>  4 The apple doesn't fall far from the [MASK] ?      -5.33        1
#>  5 The apple doesn't fall far from the [MASK] ...    -7.84        1
#>  6 The apple doesn't fall far from the [MASK] |      -8.11        1
#>  7 The apple doesn't fall far from the [MASK] tree   -8.76        1
#>  8 The apple doesn't fall far from the [MASK] -      -9.69        1
#>  9 The apple doesn't fall far from the [MASK] '      -9.87        1
#> 10 The apple doesn't fall far from the [MASK] :     -10.5         1
#> # ℹ 30,512 more rows
```
(The pretrained models and tokenizers will be downloaded from 
https://huggingface.co/ the first time they are used.)


The most common predictions are punctuation marks, because BERT uses the left 
*and* right context. In this case, the right context indicates that the mask is 
the final *token* of the sentence.
More expected results are obtained in the following way:


``` r
masked_tokens_pred_tbl("The apple doesn't fall far from the [MASK].")
#> Processing using masked model 'bert-base-uncased/' ...
#> # A tidytable: 30,522 × 4
#>    masked_sentence                             token     pred mask_n
#>    <chr>                                       <chr>    <dbl>  <int>
#>  1 The apple doesn't fall far from the [MASK]. tree    -0.691      1
#>  2 The apple doesn't fall far from the [MASK]. ground  -1.98       1
#>  3 The apple doesn't fall far from the [MASK]. sky     -2.13       1
#>  4 The apple doesn't fall far from the [MASK]. table   -4.02       1
#>  5 The apple doesn't fall far from the [MASK]. floor   -4.31       1
#>  6 The apple doesn't fall far from the [MASK]. top     -4.48       1
#>  7 The apple doesn't fall far from the [MASK]. ceiling -4.62       1
#>  8 The apple doesn't fall far from the [MASK]. window  -4.87       1
#>  9 The apple doesn't fall far from the [MASK]. trees   -4.94       1
#> 10 The apple doesn't fall far from the [MASK]. apple   -4.95       1
#> # ℹ 30,512 more rows
```

We can mask several tokens as well (but bear in mind that this type of models 
are trained with only 10-15% of masks):


``` r
df_masks <- 
  masked_tokens_pred_tbl("The apple doesn't fall far from the [MASK][MASK]")
#> Processing using masked model 'bert-base-uncased/' ...
df_masks |> filter(mask_n == 1)
#> # A tidytable: 30,522 × 4
#>    masked_sentence                                  token     pred mask_n
#>    <chr>                                            <chr>    <dbl>  <int>
#>  1 The apple doesn't fall far from the [MASK][MASK] tree    -0.738      1
#>  2 The apple doesn't fall far from the [MASK][MASK] ground  -1.72       1
#>  3 The apple doesn't fall far from the [MASK][MASK] sky     -2.31       1
#>  4 The apple doesn't fall far from the [MASK][MASK] table   -3.67       1
#>  5 The apple doesn't fall far from the [MASK][MASK] floor   -4.47       1
#>  6 The apple doesn't fall far from the [MASK][MASK] top     -4.67       1
#>  7 The apple doesn't fall far from the [MASK][MASK] ceiling -4.89       1
#>  8 The apple doesn't fall far from the [MASK][MASK] window  -5.02       1
#>  9 The apple doesn't fall far from the [MASK][MASK] bush    -5.02       1
#> 10 The apple doesn't fall far from the [MASK][MASK] vine    -5.03       1
#> # ℹ 30,512 more rows
df_masks |> filter(mask_n == 2)
#> # A tidytable: 30,522 × 4
#>    masked_sentence                                  token     pred mask_n
#>    <chr>                                            <chr>    <dbl>  <int>
#>  1 The apple doesn't fall far from the [MASK][MASK] .      -0.0570      2
#>  2 The apple doesn't fall far from the [MASK][MASK] ;      -2.91        2
#>  3 The apple doesn't fall far from the [MASK][MASK] !      -7.33        2
#>  4 The apple doesn't fall far from the [MASK][MASK] ?      -9.09        2
#>  5 The apple doesn't fall far from the [MASK][MASK] ...   -11.9         2
#>  6 The apple doesn't fall far from the [MASK][MASK] ,     -12.4         2
#>  7 The apple doesn't fall far from the [MASK][MASK] -     -12.8         2
#>  8 The apple doesn't fall far from the [MASK][MASK] |     -13.3         2
#>  9 The apple doesn't fall far from the [MASK][MASK] so    -13.4         2
#> 10 The apple doesn't fall far from the [MASK][MASK] :     -13.9         2
#> # ℹ 30,512 more rows
```
…
